<svg xmlns="http://www.w3.org/2000/svg" width="138" height="57" viewBox="0 0 138 57">
  <g fill="#FFF" fill-rule="evenodd" transform="translate(-.6 .71)">
    <path d="M29.056407,25.3202301 L29.044527,25.3261701 C29.148477,25.5459501 29.208174,25.7903811 29.208174,26.0496621 C29.208174,26.9869941 28.448151,27.7470171 27.510819,27.7470171 C26.866626,27.7470171 26.306484,27.3882411 26.018988,26.8598781 L26.016315,26.8610661 L25.957212,26.7321681 C25.953351,26.7229611 25.948599,26.7140511 25.944738,26.7048441 L17.604087,8.5165641 L9.263436,26.7048441 C9.259575,26.7143481 9.254823,26.7235551 9.250368,26.7327621 L9.191859,26.8610661 L9.189186,26.8598781 C8.90169,27.3882411 8.341548,27.7470171 7.697355,27.7470171 C6.760023,27.7470171 6,26.9869941 6,26.0496621 C6,25.7903811 6.059697,25.5459501 6.163647,25.3261701 L6.151767,25.3202301 L17.604087,8.90999999e-05 L29.056407,25.3202301 Z M56.2697151,24.352218 C57.2070471,24.352218 57.9670701,25.112241 57.9670701,26.049573 C57.9670701,26.987202 57.2070471,27.746928 56.2697151,27.746928 L43.8892701,27.746928 C42.9516411,27.746928 42.1916181,26.987202 42.1916181,26.049573 L42.1916181,1.697652 C42.1916181,0.760023 42.9516411,-7.81597009e-14 43.8892701,-7.81597009e-14 L54.9742011,-7.81597009e-14 L54.9742011,0.001782 C55.8963861,0.019602 56.6385891,0.771309 56.6385891,1.697652 C56.6385891,2.623698 55.8963861,3.375405 54.9742011,3.393225 L54.9742011,3.395007 L45.5429661,3.395007 L45.5429661,10.526571 L52.0549881,10.526571 L52.0549881,10.526868 C52.0570671,10.526868 52.0591461,10.526571 52.0609281,10.526571 C52.9982601,10.526571 53.7582831,11.286594 53.7582831,12.223926 C53.7582831,13.161258 52.9982601,13.921281 52.0609281,13.921281 C52.0591461,13.921281 52.0570671,13.920984 52.0549881,13.920984 L52.0549881,13.934052 L45.5429661,13.934052 L45.5429661,24.359643 L56.1209181,24.359643 C56.1699231,24.355485 56.2195221,24.352218 56.2697151,24.352218 Z M85.4670426,15.7986774 C86.4043746,15.7986774 87.1643976,16.5587004 87.1643976,17.4960324 C87.1643976,17.7392754 87.1124226,17.9697474 87.0203526,18.1788354 L87.0254016,18.1812114 L82.5291186,27.7469874 L71.0767986,2.4268464 L71.0883816,2.4209064 C70.9847286,2.2011264 70.9247346,1.9566954 70.9247346,1.6974144 C70.9247346,0.7600824 71.6847576,5.93999999e-05 72.6223866,5.93999999e-05 C73.2662826,5.93999999e-05 73.8264246,0.3588354 74.1142176,0.8871984 L74.1165936,0.8860104 L74.1759936,1.0152054 C74.1798546,1.0241154 74.1843096,1.0330254 74.1881706,1.0422324 L82.5291186,19.2305124 L83.9743206,16.6873014 C83.9746176,16.6870044 83.9746176,16.6867074 83.9749146,16.6864104 L83.9758056,16.6846284 C84.2635986,16.1568594 84.8234436,15.7986774 85.4670426,15.7986774 Z M92.8636197,0.0304128 C93.8009517,0.0428868 94.5505797,0.8130078 94.5381057,1.7506368 C94.5345417,2.0096208 94.4715777,2.2531608 94.3649547,2.4717528 L94.3765377,2.4776928 L89.8045197,12.1919688 L89.8033317,12.1913748 C89.5286067,12.7752768 88.9325277,13.1768208 88.2452697,13.1673168 C87.3079377,13.1548428 86.5583097,12.3850188 86.5707837,11.4473898 C86.5737537,11.2142448 86.6239467,10.9926828 86.7118587,10.7916138 L86.7115617,10.7913168 L86.7124527,10.7898318 C86.7133437,10.7883468 86.7139377,10.7868618 86.7145317,10.7853768 L91.2800157,1.0612998 C91.2889257,1.0402128 91.2990237,1.0203138 91.3088247,0.9998208 L91.3575327,0.8961678 L91.3599087,0.8976528 C91.6548297,0.3728538 92.2197237,0.0217998 92.8636197,0.0304128 Z M131.410448,8.5381857 C132.127109,10.2352437 132.49034,12.0597147 132.49034,13.9611087 C132.49034,15.8622057 132.127109,17.6863797 131.410448,19.3834377 C130.694678,21.0781197 129.696461,22.5738117 128.443121,23.8289337 C127.19186,25.0828677 125.707157,26.0885097 124.029998,26.8179417 C122.346899,27.5503437 120.529259,27.9215937 118.628162,27.9215937 C116.700929,27.9215937 114.863984,27.5506407 113.168411,26.8185357 C111.47759,26.0894007 109.985462,25.0831647 108.733607,23.8286367 C107.481158,22.5744057 106.477001,21.0801987 105.748757,19.3878927 C105.018137,17.6896467 104.647778,15.8639877 104.647778,13.9611087 C104.647778,12.0579327 105.018137,10.2319767 105.748757,8.5340277 C106.476407,6.8429097 107.480564,5.3487027 108.733607,4.0932837 C109.986056,2.8387557 111.478184,1.8328167 113.168411,1.1033847 C114.865766,0.3712797 116.702414,2.96999999e-05 118.628162,2.96999999e-05 C120.527774,2.96999999e-05 122.345117,0.3715767 124.029998,1.1039787 C125.706563,1.8337077 127.191266,2.8390527 128.443121,4.0929867 C129.697055,5.3492967 130.695272,6.8449887 131.410448,8.5381857 Z M128.070683,17.9786277 C128.599046,16.7404347 128.86694,15.3884907 128.86694,13.9611087 C128.86694,12.5337267 128.599046,11.1817827 128.070683,9.9429957 C127.540538,8.7003477 126.803978,7.6032297 125.881496,6.6825297 C124.958123,5.7606417 123.857144,5.0181417 122.609447,4.4752257 C121.369769,3.9361707 120.030299,3.6629307 118.628162,3.6629307 C117.199295,3.6629307 115.838738,3.9364677 114.584804,4.4761167 C113.325524,5.0187357 112.218605,5.7609387 111.295232,6.6825297 C110.371265,7.6047147 109.62728,8.7036147 109.084364,9.9483417 C108.544715,11.1853467 108.270881,12.5355087 108.270881,13.9611087 C108.270881,15.3867087 108.544715,16.7368707 109.084364,17.9732817 C109.626983,19.2177117 110.370968,20.3166117 111.295232,21.2393907 C112.219199,22.1615757 113.326118,22.9037787 114.584804,23.4458037 C115.837847,23.9854527 117.198404,24.2589897 118.628162,24.2589897 C120.030893,24.2589897 121.37066,23.9857497 122.609447,23.4466947 C123.85655,22.9043727 124.957529,22.1618727 125.881496,21.2393907 C126.804275,20.3180967 127.541132,19.2212757 128.070683,17.9786277 Z"/>
    <path fill-rule="nonzero" d="M2.65332031,45.1992188 L2.65332031,55 L1.17431641,55 L1.17431641,45.1992188 L2.65332031,45.1992188 Z M10.768301,55 L10.768301,44.5327148 L17.9157619,52.0102539 L17.9157619,45.1992188 L19.3947659,45.1992188 L19.3947659,55.5966797 L12.2473049,48.1381836 L12.2473049,55 L10.768301,55 Z M27.5033989,55 L27.5033989,45.1992188 L29.5600395,45.1992188 C30.5460471,45.1992188 31.3246851,45.2965485 31.895977,45.4912109 C32.5095869,45.6816416 33.0660592,46.0053688 33.5654106,46.4624023 C34.5768089,47.384933 35.0825005,48.5973232 35.0825005,50.0996094 C35.0825005,51.6061273 34.5556503,52.8248651 33.5019341,53.7558594 C32.9729601,54.2213565 32.4186036,54.5450837 31.8388481,54.7270508 C31.2971787,54.9090178 30.52912,55 29.5346489,55 L27.5033989,55 Z M28.9824028,53.6098633 L29.6489067,53.6098633 C30.3132981,53.6098633 30.8655386,53.5400398 31.305645,53.4003906 C31.7457514,53.2522779 32.1435338,53.017417 32.4990044,52.6958008 C33.2268726,52.0314094 33.5908012,51.166021 33.5908012,50.0996094 C33.5908012,49.0247342 33.2311043,48.1529981 32.5116997,47.484375 C31.8642355,46.8876923 30.9099807,46.5893555 29.6489067,46.5893555 L28.9824028,46.5893555 L28.9824028,53.6098633 Z M44.1813679,45.1992188 L44.1813679,51.1025391 C44.1813679,51.9446657 44.3188991,52.5603822 44.5939655,52.949707 C45.0044494,53.5125354 45.5820803,53.7939453 46.3268757,53.7939453 C47.0759029,53.7939453 47.6556497,53.5125354 48.0661335,52.949707 C48.3412,52.5730775 48.4787312,51.957361 48.4787312,51.1025391 L48.4787312,45.1992188 L49.9577351,45.1992188 L49.9577351,51.5087891 C49.9577351,52.5413463 49.6361237,53.3919237 48.9928913,54.0605469 C48.2692549,54.8053423 47.3805919,55.1777344 46.3268757,55.1777344 C45.2731595,55.1777344 44.3866124,54.8053423 43.6672077,54.0605469 C43.0239753,53.3919237 42.702364,52.5413463 42.702364,51.5087891 L42.702364,45.1992188 L44.1813679,45.1992188 Z M63.607872,46.6591797 L62.408165,47.3701172 C62.18388,46.9807923 61.9701777,46.7268886 61.7670517,46.6083984 C61.5554621,46.4729811 61.2825156,46.4052734 60.948204,46.4052734 C60.5377202,46.4052734 60.1970661,46.521646 59.9262314,46.7543945 C59.6553967,46.9829113 59.5199814,47.2706688 59.5199814,47.6176758 C59.5199814,48.0958683 59.8754466,48.4809556 60.5863876,48.7729492 L61.5639267,49.1728516 C62.3595036,49.4944678 62.9413663,49.8869606 63.3095322,50.3503418 C63.6776981,50.813723 63.8617783,51.3818326 63.8617783,52.0546875 C63.8617783,52.9560592 63.5613255,53.7008434 62.9604111,54.2890625 C62.3552648,54.8815134 61.604133,55.1777344 60.7069931,55.1777344 C59.8564029,55.1777344 59.153936,54.9259465 58.5995712,54.4223633 C58.0536701,53.91878 57.7130159,53.2099655 57.5775986,52.2958984 L59.0756454,51.9658203 C59.1433541,52.541344 59.2618425,52.9391265 59.4311142,53.1591797 C59.7358032,53.5823589 60.1801347,53.7939453 60.764122,53.7939453 C61.2253873,53.7939453 61.6083588,53.6394872 61.9130478,53.3305664 C62.2177368,53.0216456 62.370079,52.6302107 62.370079,52.15625 C62.370079,51.9658194 62.3436307,51.7912606 62.2907333,51.6325684 C62.2378359,51.4738762 62.1553172,51.3278815 62.0431747,51.1945801 C61.9310323,51.0612786 61.7860956,50.9364426 61.6083603,50.8200684 C61.430625,50.7036941 61.2190386,50.5926112 60.9735947,50.4868164 L60.0277939,50.0932617 C58.6863158,49.5262016 58.0155869,48.6967828 58.0155869,47.6049805 C58.0155869,46.8686487 58.2969968,46.2529322 58.8598251,45.7578125 C59.4226535,45.258461 60.1230045,45.0087891 60.9608994,45.0087891 C62.0907878,45.0087891 62.9731032,45.5589138 63.607872,46.6591797 Z M74.2936535,46.5893555 L74.2936535,55 L72.8146496,55 L72.8146496,46.5893555 L70.5612316,46.5893555 L70.5612316,45.1992188 L76.5407238,45.1992188 L76.5407238,46.5893555 L74.2936535,46.5893555 Z M86.9408607,50.8232422 L89.9750404,55 L88.1659584,55 L85.366642,50.9882812 L85.1000404,50.9882812 L85.1000404,55 L83.6210365,55 L83.6210365,45.1992188 L85.3539467,45.1992188 C86.648875,45.1992188 87.584087,45.4425431 88.1596107,45.9291992 C88.7943795,46.4708686 89.1117592,47.1860307 89.1117592,48.074707 C89.1117592,48.7687209 88.9128679,49.3653946 88.5150795,49.8647461 C88.1172911,50.3640975 87.5925567,50.6835931 86.9408607,50.8232422 Z M85.1000404,49.699707 L85.569767,49.699707 C86.9704901,49.699707 87.6708412,49.1643934 87.6708412,48.09375 C87.6708412,47.0908153 86.9895329,46.5893555 85.6268959,46.5893555 L85.1000404,46.5893555 L85.1000404,49.699707 Z M98.6867008,45.1992188 L98.6867008,55 L97.2076969,55 L97.2076969,45.1992188 L98.6867008,45.1992188 Z M112.559006,52.6196289 L108.363205,52.6196289 L107.271408,55 L105.678146,55 L110.527756,44.5834961 L115.205978,55 L113.587326,55 L112.559006,52.6196289 Z M111.955978,51.2294922 L110.502365,47.8969727 L108.978928,51.2294922 L111.955978,51.2294922 Z M123.67008,45.1992188 L123.67008,53.6098633 L126.551916,53.6098633 L126.551916,55 L122.191076,55 L122.191076,45.1992188 L123.67008,45.1992188 Z M135.193752,45.1992188 L135.193752,53.6098633 L138.075588,53.6098633 L138.075588,55 L133.714748,55 L133.714748,45.1992188 L135.193752,45.1992188 Z"/>
  </g>
</svg>
